<svg width="50" height="51" viewBox="0 0 50 51" fill="none" xmlns="http://www.w3.org/2000/svg">
<path d="M25.25 28.6875C25.2083 28.6875 25.1458 28.6875 25.1042 28.6875C25.0417 28.6875 24.9583 28.6875 24.8958 28.6875C20.1667 28.5417 16.625 24.8542 16.625 20.3125C16.625 15.6875 20.3958 11.9167 25.0208 11.9167C29.6458 11.9167 33.4167 15.6875 33.4167 20.3125C33.3958 24.875 29.8333 28.5417 25.3125 28.6875C25.2708 28.6875 25.2708 28.6875 25.25 28.6875ZM25 15.0208C22.0833 15.0208 19.7292 17.3958 19.7292 20.2917C19.7292 23.1458 21.9583 25.4583 24.7917 25.5625C24.8542 25.5417 25.0625 25.5417 25.2708 25.5625C28.0625 25.4167 30.25 23.125 30.2708 20.2917C30.2708 17.3958 27.9167 15.0208 25 15.0208Z" fill="#292D32"/>
<path d="M25.0001 47.8958C19.3959 47.8958 14.0417 45.8125 9.8959 42.0208C9.5209 41.6875 9.35423 41.1875 9.3959 40.7083C9.66673 38.2292 11.2084 35.9167 13.7709 34.2083C19.9792 30.0833 30.0417 30.0833 36.2292 34.2083C38.7917 35.9375 40.3334 38.2292 40.6042 40.7083C40.6667 41.2083 40.4792 41.6875 40.1042 42.0208C35.9584 45.8125 30.6042 47.8958 25.0001 47.8958ZM12.6667 40.2917C16.1251 43.1875 20.4792 44.7708 25.0001 44.7708C29.5209 44.7708 33.8751 43.1875 37.3334 40.2917C36.9584 39.0208 35.9584 37.7917 34.4792 36.7917C29.3542 33.375 20.6667 33.375 15.5001 36.7917C14.0209 37.7917 13.0417 39.0208 12.6667 40.2917Z" fill="#292D32"/>
<path d="M24.9998 47.8958C12.6457 47.8958 2.604 37.8542 2.604 25.5C2.604 13.1458 12.6457 3.10416 24.9998 3.10416C37.354 3.10416 47.3957 13.1458 47.3957 25.5C47.3957 37.8542 37.354 47.8958 24.9998 47.8958ZM24.9998 6.22916C14.3748 6.22916 5.729 14.875 5.729 25.5C5.729 36.125 14.3748 44.7708 24.9998 44.7708C35.6248 44.7708 44.2707 36.125 44.2707 25.5C44.2707 14.875 35.6248 6.22916 24.9998 6.22916Z" fill="#292D32"/>
</svg>
